<?xml version="1.0" encoding="UTF-8"?>
<svg width="50px" height="50px" viewBox="0 0 50 50" version="1.1" xmlns="http://www.w3.org/2000/svg" xmlns:xlink="http://www.w3.org/1999/xlink">
    <!-- Generator: Sketch 52.6 (67491) - http://www.bohemiancoding.com/sketch -->
    <title>ic/password</title>
    <desc>Created with Sketch.</desc>
    <g id="ic/password" stroke="none" stroke-width="1" fill="none" fill-rule="evenodd">
        <g id="Group-2">
            <circle id="Oval" fill="#FE93BB" cx="25" cy="25" r="25"></circle>
            <g id="password" transform="translate(12.000000, 8.000000)" fill="#FFFFFF" fill-rule="nonzero">
                <path d="M22.6745645,33.9991913 L3.26494772,33.9991913 C1.47845428,33.9991913 0.0300116176,33.3602914 0.0300116176,31.5729892 L0.0300116176,17.8245106 C0.0300116176,16.0380172 1.47845428,14.5895745 3.26494772,14.5895745 L3.26494772,9.73717037 C3.26494772,4.37768994 7.60946696,0.0323619961 12.9697561,0.0323619961 C18.3292365,0.0323619961 22.6745645,4.37768994 22.6745645,9.73717037 L22.6745645,14.5895745 C24.4610579,14.5895745 25.9095006,16.0380172 25.9095006,17.8245106 L25.9095006,31.5729892 C25.9095006,33.3602914 24.4610579,33.9991913 22.6745645,33.9991913 Z M21.0570964,9.73717037 C21.0570964,9.73717037 21.0570964,9.73717037 21.0570964,9.73717037 C21.0570964,5.27053232 17.4355854,1.64983006 12.9697561,1.64983006 C8.50311805,1.64983006 4.88160705,5.27053232 4.88160705,9.73717037 C4.88160705,9.73717037 4.88160705,9.73717037 4.88160705,9.73717037 L4.88241579,9.73717037 L4.88241579,14.5895745 L21.0570964,14.5895745 L21.0570964,9.73717037 Z M24.2920325,17.8245106 C24.2920325,16.9316683 23.5674068,16.2070426 22.6745645,16.2070426 L3.26494772,16.2070426 C2.37129663,16.2070426 1.64747969,16.9316683 1.64747969,17.8245106 L1.64747969,31.5729892 C1.64747969,32.4666403 2.37129663,32.3817232 3.26494772,32.3817232 L22.6745645,32.3817232 C23.5674068,32.3817232 24.2920325,32.4666403 24.2920325,31.5729892 L24.2920325,17.8245106 Z M13.7784901,26.6065535 L13.7784901,29.1475958 C13.7784901,29.594017 13.4161773,29.9563298 12.9697561,29.9563298 C12.5233349,29.9563298 12.1610221,29.594017 12.1610221,29.1475958 L12.1610221,26.6065535 C10.7683821,26.2458581 9.73481996,24.9915116 9.73481996,23.4856489 C9.73481996,21.6991554 11.1832626,20.2507128 12.9697561,20.2507128 C14.7562496,20.2507128 16.2046922,21.6991554 16.2046922,23.4856489 C16.2046922,24.9915116 15.1711301,26.2458581 13.7784901,26.6065535 Z M12.9697561,21.8681808 C12.076105,21.8681808 11.352288,22.5928065 11.352288,23.4856489 C11.352288,24.3793 12.076105,25.1039257 12.9697561,25.1039257 C13.8625985,25.1039257 14.5872242,24.3793 14.5872242,23.4856489 C14.5872242,22.5928065 13.8625985,21.8681808 12.9697561,21.8681808 Z" id="Shape"></path>
            </g>
        </g>
    </g>
</svg>